{
	"info": {
		"_postman_id": "165fce05-e6e6-49f2-bd93-5793211735fd",
		"name": "Amanah-MSIB",
		"schema": "https://schema.getpostman.com/json/collection/v2.1.0/collection.json",
		"_exporter_id": "23215740"
	},
	"item": [
		{
			"name": "Authentication",
			"item": [
				{
					"name": "Register",
					"request": {
						"method": "POST",
						"header": [],
						"body": {
							"mode": "raw",
							"raw": "{\r\n    \"first_name\" : \"mamank\",\r\n    \"last_name\" : \"hehe\",\r\n    \"username\" : \"mamankhehe\",\r\n    \"email\" : \"mamankhehe@gmail.com\",\r\n    \"password\" : \"hehe1234\"\r\n\r\n}",
							"options": {
								"raw": {
									"language": "json"
								}
							}
						},
						"url": {
							"raw": "{{BaseUrl}}/api/auth/register",
							"host": [
								"{{BaseUrl}}"
							],
							"path": [
								"api",
								"auth",
								"register"
							]
						}
					},
					"response": [
						{
							"name": "Register",
							"originalRequest": {
								"method": "POST",
								"header": [],
								"body": {
									"mode": "raw",
									"raw": "{\r\n    \"first_name\" : \"mamank\",\r\n    \"last_name\" : \"hehe\",\r\n    \"username\" : \"mamankhehe\",\r\n    \"email\" : \"mamankhehe@gmail.com\",\r\n    \"phone_number\" : \"081234567890\",\r\n    \"password\" : \"hehe1234\"\r\n\r\n}",
									"options": {
										"raw": {
											"language": "json"
										}
									}
								},
								"url": {
									"raw": "{{BaseUrl}}/api/auth/register",
									"host": [
										"{{BaseUrl}}"
									],
									"path": [
										"api",
										"auth",
										"register"
									]
								}
							},
							"status": "OK",
							"code": 200,
							"_postman_previewlanguage": "json",
							"header": [
								{
									"key": "Host",
									"value": "lvh.me:8000"
								},
								{
									"key": "Date",
									"value": "Fri, 04 Nov 2022 02:43:26 GMT"
								},
								{
									"key": "Date",
									"value": "Fri, 04 Nov 2022 02:43:26 GMT"
								},
								{
									"key": "Connection",
									"value": "close"
								},
								{
									"key": "X-Powered-By",
									"value": "PHP/7.4.29"
								},
								{
									"key": "Cache-Control",
									"value": "no-cache, private"
								},
								{
									"key": "Content-Type",
									"value": "application/json"
								},
								{
									"key": "X-RateLimit-Limit",
									"value": "60"
								},
								{
									"key": "X-RateLimit-Remaining",
									"value": "58"
								},
								{
									"key": "Access-Control-Allow-Origin",
									"value": "*"
								}
							],
							"cookie": [],
							"body": "{\n    \"code\": 200,\n    \"info\": \"Register berhasil\",\n    \"data\": {\n        \"first_name\": \"mamank\",\n        \"last_name\": \"hehe\",\n        \"username\": \"mamankhehe\",\n        \"email\": \"mamankhehe@gmail.com\",\n        \"phone_number\": \"081234567890\",\n        \"updated_at\": \"2022-11-04T02:43:26.000000Z\",\n        \"created_at\": \"2022-11-04T02:43:26.000000Z\",\n        \"id\": 3\n    }\n}"
						}
					]
				},
				{
					"name": "Login",
					"request": {
						"method": "POST",
						"header": [],
						"body": {
							"mode": "raw",
							"raw": "{\r\n    \"email\" : \"testing@gmail.com\",\r\n    \"password\" : \"password\"\r\n}",
							"options": {
								"raw": {
									"language": "json"
								}
							}
						},
						"url": {
							"raw": "{{BaseUrl}}/api/auth/login",
							"host": [
								"{{BaseUrl}}"
							],
							"path": [
								"api",
								"auth",
								"login"
							]
						}
					},
					"response": [
						{
							"name": "Login",
							"originalRequest": {
								"method": "POST",
								"header": [],
								"body": {
									"mode": "raw",
									"raw": "{\r\n    \"email\" : \"testing@gmail.com\",\r\n    \"password\" : \"password\"\r\n}",
									"options": {
										"raw": {
											"language": "json"
										}
									}
								},
								"url": {
									"raw": "{{BaseUrl}}/api/auth/login",
									"host": [
										"{{BaseUrl}}"
									],
									"path": [
										"api",
										"auth",
										"login"
									]
								}
							},
							"status": "OK",
							"code": 200,
							"_postman_previewlanguage": "json",
							"header": [
								{
									"key": "Host",
									"value": "lvh.me:8000"
								},
								{
									"key": "Date",
									"value": "Fri, 04 Nov 2022 02:05:31 GMT"
								},
								{
									"key": "Date",
									"value": "Fri, 04 Nov 2022 02:05:31 GMT"
								},
								{
									"key": "Connection",
									"value": "close"
								},
								{
									"key": "X-Powered-By",
									"value": "PHP/7.4.29"
								},
								{
									"key": "Cache-Control",
									"value": "no-cache, private"
								},
								{
									"key": "Content-Type",
									"value": "application/json"
								},
								{
									"key": "X-RateLimit-Limit",
									"value": "60"
								},
								{
									"key": "X-RateLimit-Remaining",
									"value": "58"
								},
								{
									"key": "Access-Control-Allow-Origin",
									"value": "*"
								}
							],
							"cookie": [],
							"body": "{\n    \"code\": \"00\",\n    \"info\": \"Login berhasil\",\n    \"data\": {\n        \"access_token\": \"eyJ0eXAiOiJKV1QiLCJhbGciOiJIUzI1NiJ9.eyJpc3MiOiJodHRwOlwvXC9sdmgubWU6ODAwMFwvYXBpXC9hdXRoXC9sb2dpbiIsImlhdCI6MTY2NzUyNzUzMSwiZXhwIjoxNjY3NjEzOTMxLCJuYmYiOjE2Njc1Mjc1MzEsImp0aSI6IldGZUdYUmt1YTdtMnFvY1kiLCJzdWIiOjEsInBydiI6IjIzYmQ1Yzg5NDlmNjAwYWRiMzllNzAxYzQwMDg3MmRiN2E1OTc2ZjcifQ.0w-Km9SWj-2ONngA1puVz4M063kgJrJh_aIi1dO7KCE\",\n        \"token_type\": \"bearer\",\n        \"user\": {\n            \"name\": \"testing\",\n            \"email\": \"testing@gmail.com\"\n        },\n        \"expires_in\": 86400\n    }\n}"
						}
					]
				},
				{
					"name": "Logout",
					"request": {
						"auth": {
							"type": "bearer",
							"bearer": [
								{
									"key": "token",
									"value": "{{token}}",
									"type": "string"
								}
							]
						},
						"method": "POST",
						"header": [],
						"url": {
							"raw": "{{BaseUrl}}/api/auth/logout",
							"host": [
								"{{BaseUrl}}"
							],
							"path": [
								"api",
								"auth",
								"logout"
							]
						}
					},
					"response": [
						{
							"name": "Logout",
							"originalRequest": {
								"method": "POST",
								"header": [],
								"url": {
									"raw": "{{BaseUrl}}/api/auth/logout",
									"host": [
										"{{BaseUrl}}"
									],
									"path": [
										"api",
										"auth",
										"logout"
									]
								}
							},
							"status": "OK",
							"code": 200,
							"_postman_previewlanguage": "json",
							"header": [
								{
									"key": "Host",
									"value": "lvh.me:8000"
								},
								{
									"key": "Date",
									"value": "Fri, 04 Nov 2022 03:01:43 GMT"
								},
								{
									"key": "Date",
									"value": "Fri, 04 Nov 2022 03:01:43 GMT"
								},
								{
									"key": "Connection",
									"value": "close"
								},
								{
									"key": "X-Powered-By",
									"value": "PHP/7.4.29"
								},
								{
									"key": "Cache-Control",
									"value": "no-cache, private"
								},
								{
									"key": "Content-Type",
									"value": "application/json"
								},
								{
									"key": "X-RateLimit-Limit",
									"value": "60"
								},
								{
									"key": "X-RateLimit-Remaining",
									"value": "59"
								},
								{
									"key": "Access-Control-Allow-Origin",
									"value": "*"
								}
							],
							"cookie": [],
							"body": "{\n    \"code\": 200,\n    \"info\": \"Successfully logged out\",\n    \"data\": {}\n}"
						}
					]
				},
				{
					"name": "Refresh",
					"request": {
						"auth": {
							"type": "bearer",
							"bearer": [
								{
									"key": "token",
									"value": "{{token}}",
									"type": "string"
								}
							]
						},
						"method": "POST",
						"header": [],
						"url": {
							"raw": "{{BaseUrl}}/api/auth/refresh",
							"host": [
								"{{BaseUrl}}"
							],
							"path": [
								"api",
								"auth",
								"refresh"
							]
						}
					},
					"response": [
						{
							"name": "Refresh",
							"originalRequest": {
								"method": "POST",
								"header": [],
								"url": {
									"raw": "{{BaseUrl}}/api/auth/refresh",
									"host": [
										"{{BaseUrl}}"
									],
									"path": [
										"api",
										"auth",
										"refresh"
									]
								}
							},
							"status": "OK",
							"code": 200,
							"_postman_previewlanguage": "json",
							"header": [
								{
									"key": "Host",
									"value": "lvh.me:8000"
								},
								{
									"key": "Date",
									"value": "Fri, 04 Nov 2022 03:05:09 GMT"
								},
								{
									"key": "Date",
									"value": "Fri, 04 Nov 2022 03:05:09 GMT"
								},
								{
									"key": "Connection",
									"value": "close"
								},
								{
									"key": "X-Powered-By",
									"value": "PHP/7.4.29"
								},
								{
									"key": "Cache-Control",
									"value": "no-cache, private"
								},
								{
									"key": "Content-Type",
									"value": "application/json"
								},
								{
									"key": "X-RateLimit-Limit",
									"value": "60"
								},
								{
									"key": "X-RateLimit-Remaining",
									"value": "59"
								},
								{
									"key": "Access-Control-Allow-Origin",
									"value": "*"
								}
							],
							"cookie": [],
							"body": "{\n    \"code\": \"00\",\n    \"info\": \"Refresh token berhasil\",\n    \"data\": {\n        \"access_token\": \"eyJ0eXAiOiJKV1QiLCJhbGciOiJIUzI1NiJ9.eyJpc3MiOiJodHRwOlwvXC9sdmgubWU6ODAwMFwvYXBpXC9hdXRoXC9yZWZyZXNoIiwiaWF0IjoxNjY3NTMxMDkxLCJleHAiOjE2Njc2MTc1MDksIm5iZiI6MTY2NzUzMTEwOSwianRpIjoiYlJMWG9wMHk0QUtQb0VCRCIsInN1YiI6MywicHJ2IjoiMjNiZDVjODk0OWY2MDBhZGIzOWU3MDFjNDAwODcyZGI3YTU5NzZmNyJ9.rS9CsCVFefS-KOFaaETd-We5u2DhM9oRXuKUBTfU6XM\",\n        \"token_type\": \"bearer\",\n        \"user\": {\n            \"username\": \"mamankhehe\",\n            \"email\": \"mamankhehe@gmail.com\"\n        },\n        \"expires_in\": 86400\n    }\n}"
						}
					]
				}
			]
		},
		{
			"name": "Workspace",
			"item": [
				{
					"name": "Create Workspace",
					"request": {
						"auth": {
							"type": "bearer",
							"bearer": [
								{
									"key": "token",
									"value": "{{token}}",
									"type": "string"
								}
							]
						},
						"method": "POST",
						"header": [],
						"body": {
							"mode": "raw",
							"raw": "{\r\n    \"name\" : \"test workspace\",\r\n    \"description\" : \"testing for MSIB\"\r\n}",
							"options": {
								"raw": {
									"language": "json"
								}
							}
						},
						"url": {
							"raw": "{{BaseUrl}}/api/workspace",
							"host": [
								"{{BaseUrl}}"
							],
							"path": [
								"api",
								"workspace"
							]
						}
					},
					"response": [
						{
							"name": "Create Workspace",
							"originalRequest": {
								"method": "POST",
								"header": [],
								"body": {
									"mode": "raw",
									"raw": "{\r\n    \"name\" : \"test workspace\",\r\n    \"description\" : \"testing for MSIB\"\r\n}",
									"options": {
										"raw": {
											"language": "json"
										}
									}
								},
								"url": {
									"raw": "{{BaseUrl}}/api/workspace",
									"host": [
										"{{BaseUrl}}"
									],
									"path": [
										"api",
										"workspace"
									]
								}
							},
							"status": "OK",
							"code": 200,
							"_postman_previewlanguage": "json",
							"header": [
								{
									"key": "Host",
									"value": "lvh.me:8000"
								},
								{
									"key": "Date",
									"value": "Fri, 04 Nov 2022 04:00:03 GMT"
								},
								{
									"key": "Date",
									"value": "Fri, 04 Nov 2022 04:00:03 GMT"
								},
								{
									"key": "Connection",
									"value": "close"
								},
								{
									"key": "X-Powered-By",
									"value": "PHP/7.4.29"
								},
								{
									"key": "Cache-Control",
									"value": "no-cache, private"
								},
								{
									"key": "Content-Type",
									"value": "application/json"
								},
								{
									"key": "X-RateLimit-Limit",
									"value": "60"
								},
								{
									"key": "X-RateLimit-Remaining",
									"value": "57"
								},
								{
									"key": "Access-Control-Allow-Origin",
									"value": "*"
								}
							],
							"cookie": [],
							"body": "{\n    \"code\": 200,\n    \"info\": \"Workspace berhasil dibuat\",\n    \"data\": {\n        \"id\": \"29197f90-5bf5-11ed-85db-b3a7b332a967\",\n        \"name\": \"test workspace\",\n        \"description\": \"testing for MSIB\",\n        \"owner_id\": 3,\n        \"updated_at\": \"2022-11-04T04:00:03.000000Z\",\n        \"created_at\": \"2022-11-04T04:00:03.000000Z\"\n    }\n}"
						}
					]
				},
				{
					"name": "Get Workspace",
					"request": {
						"method": "GET",
						"header": []
					},
					"response": [
						{
							"name": "Get Workspace",
							"originalRequest": {
								"method": "GET",
								"header": [],
								"url": {
									"raw": "{{BaseUrl}}/api/workspace/29197f90-5bf5-11ed-85db-b3a7b332a967",
									"host": [
										"{{BaseUrl}}"
									],
									"path": [
										"api",
										"workspace",
										"29197f90-5bf5-11ed-85db-b3a7b332a967"
									]
								}
							},
							"status": "OK",
							"code": 200,
							"_postman_previewlanguage": "json",
							"header": [
								{
									"key": "Host",
									"value": "lvh.me:8000"
								},
								{
									"key": "Date",
									"value": "Fri, 04 Nov 2022 04:06:02 GMT"
								},
								{
									"key": "Date",
									"value": "Fri, 04 Nov 2022 04:06:02 GMT"
								},
								{
									"key": "Connection",
									"value": "close"
								},
								{
									"key": "X-Powered-By",
									"value": "PHP/7.4.29"
								},
								{
									"key": "Cache-Control",
									"value": "no-cache, private"
								},
								{
									"key": "Content-Type",
									"value": "application/json"
								},
								{
									"key": "X-RateLimit-Limit",
									"value": "60"
								},
								{
									"key": "X-RateLimit-Remaining",
									"value": "59"
								},
								{
									"key": "Access-Control-Allow-Origin",
									"value": "*"
								}
							],
							"cookie": [],
							"body": "{\n    \"code\": 200,\n    \"info\": \"Berhasil mendapatkan workspace\",\n    \"data\": {\n        \"id\": \"29197f90-5bf5-11ed-85db-b3a7b332a967\",\n        \"name\": \"test workspace\",\n        \"description\": \"testing for MSIB\",\n        \"owner_id\": 3,\n        \"visibility\": \"public\",\n        \"created_at\": \"2022-11-04T04:00:03.000000Z\",\n        \"updated_at\": \"2022-11-04T04:00:03.000000Z\"\n    }\n}"
						}
					]
				},
				{
					"name": "Update Workspace",
					"request": {
						"auth": {
							"type": "bearer",
							"bearer": [
								{
									"key": "token",
									"value": "{{token}}",
									"type": "string"
								}
							]
						},
						"method": "PUT",
						"header": [],
						"body": {
							"mode": "raw",
							"raw": "{\r\n    \"name\" : \"Update workspace for MSIB\",\r\n    \"description\" : \"updated description workspace\",\r\n    \"visibility\" : \"private\"\r\n}",
							"options": {
								"raw": {
									"language": "json"
								}
							}
						},
						"url": {
							"raw": "{{BaseUrl}}/api/workspace/29197f90-5bf5-11ed-85db-b3a7b332a967",
							"host": [
								"{{BaseUrl}}"
							],
							"path": [
								"api",
								"workspace",
								"29197f90-5bf5-11ed-85db-b3a7b332a967"
							]
						}
					},
					"response": [
						{
							"name": "Update Workspace",
							"originalRequest": {
								"method": "PUT",
								"header": [],
								"body": {
									"mode": "raw",
									"raw": "{\r\n    \"name\" : \"Update workspace for MSIB\",\r\n    \"description\" : \"updated description workspace\",\r\n    \"visibility\" : \"private\"\r\n}",
									"options": {
										"raw": {
											"language": "json"
										}
									}
								},
								"url": {
									"raw": "{{BaseUrl}}/api/workspace/29197f90-5bf5-11ed-85db-b3a7b332a967",
									"host": [
										"{{BaseUrl}}"
									],
									"path": [
										"api",
										"workspace",
										"29197f90-5bf5-11ed-85db-b3a7b332a967"
									]
								}
							},
							"status": "OK",
							"code": 200,
							"_postman_previewlanguage": "json",
							"header": [
								{
									"key": "Host",
									"value": "lvh.me:8000"
								},
								{
									"key": "Date",
									"value": "Fri, 04 Nov 2022 04:17:13 GMT"
								},
								{
									"key": "Date",
									"value": "Fri, 04 Nov 2022 04:17:13 GMT"
								},
								{
									"key": "Connection",
									"value": "close"
								},
								{
									"key": "X-Powered-By",
									"value": "PHP/7.4.29"
								},
								{
									"key": "Cache-Control",
									"value": "no-cache, private"
								},
								{
									"key": "Content-Type",
									"value": "application/json"
								},
								{
									"key": "X-RateLimit-Limit",
									"value": "60"
								},
								{
									"key": "X-RateLimit-Remaining",
									"value": "59"
								},
								{
									"key": "Access-Control-Allow-Origin",
									"value": "*"
								}
							],
							"cookie": [],
							"body": "{\n    \"code\": 200,\n    \"info\": \"Workspace berhasil diubah\",\n    \"data\": {\n        \"id\": \"29197f90-5bf5-11ed-85db-b3a7b332a967\",\n        \"name\": \"Update workspace for MSIB\",\n        \"description\": \"updated description workspace\",\n        \"owner_id\": 3,\n        \"visibility\": \"private\",\n        \"created_at\": \"2022-11-04T04:00:03.000000Z\",\n        \"updated_at\": \"2022-11-04T04:17:13.000000Z\"\n    }\n}"
						}
					]
				},
				{
					"name": "Delete Workspace",
					"request": {
						"method": "GET",
						"header": []
					},
					"response": [
						{
							"name": "Delete Workspace",
							"originalRequest": {
								"method": "DELETE",
								"header": [],
								"url": {
									"raw": "{{BaseUrl}}/api/workspace/29197f90-5bf5-11ed-85db-b3a7b332a967",
									"host": [
										"{{BaseUrl}}"
									],
									"path": [
										"api",
										"workspace",
										"29197f90-5bf5-11ed-85db-b3a7b332a967"
									]
								}
							},
							"status": "OK",
							"code": 200,
							"_postman_previewlanguage": "json",
							"header": [
								{
									"key": "Host",
									"value": "lvh.me:8000"
								},
								{
									"key": "Date",
									"value": "Fri, 04 Nov 2022 04:22:27 GMT"
								},
								{
									"key": "Date",
									"value": "Fri, 04 Nov 2022 04:22:27 GMT"
								},
								{
									"key": "Connection",
									"value": "close"
								},
								{
									"key": "X-Powered-By",
									"value": "PHP/7.4.29"
								},
								{
									"key": "Cache-Control",
									"value": "no-cache, private"
								},
								{
									"key": "Content-Type",
									"value": "application/json"
								},
								{
									"key": "X-RateLimit-Limit",
									"value": "60"
								},
								{
									"key": "X-RateLimit-Remaining",
									"value": "59"
								},
								{
									"key": "Access-Control-Allow-Origin",
									"value": "*"
								}
							],
							"cookie": [],
							"body": "{\n    \"code\": 200,\n    \"info\": \"Workspace berhasil dihapus\"\n}"
						}
					]
				},
				{
					"name": "Invite Team",
					"request": {
						"auth": {
							"type": "bearer",
							"bearer": [
								{
									"key": "token",
									"value": "{{token}}",
									"type": "string"
								}
							]
						},
						"method": "POST",
						"header": [],
						"body": {
							"mode": "raw",
							"raw": "{\r\n    \"email\" : \"mamankhehe@gmail.com\"\r\n}",
							"options": {
								"raw": {
									"language": "json"
								}
							}
						},
						"url": {
							"raw": "{{BaseUrl}}/api/workspace/invite/b28f9900-5c02-11ed-afa5-2502b403f654",
							"host": [
								"{{BaseUrl}}"
							],
							"path": [
								"api",
								"workspace",
								"invite",
								"b28f9900-5c02-11ed-afa5-2502b403f654"
							]
						}
					},
					"response": [
						{
							"name": "Invite Team",
							"originalRequest": {
								"method": "POST",
								"header": [],
								"body": {
									"mode": "raw",
									"raw": "{\r\n    \"email\" : \"testing@gmail.com\"\r\n}",
									"options": {
										"raw": {
											"language": "json"
										}
									}
								},
								"url": {
									"raw": "{{BaseUrl}}/api/workspace/invite/600ca8a0-5c09-11ed-9523-6512debb2fa4",
									"host": [
										"{{BaseUrl}}"
									],
									"path": [
										"api",
										"workspace",
										"invite",
										"600ca8a0-5c09-11ed-9523-6512debb2fa4"
									]
								}
							},
							"status": "OK",
							"code": 200,
							"_postman_previewlanguage": "json",
							"header": [
								{
									"key": "Host",
									"value": "lvh.me:8000"
								},
								{
									"key": "Date",
									"value": "Fri, 04 Nov 2022 06:25:03 GMT"
								},
								{
									"key": "Date",
									"value": "Fri, 04 Nov 2022 06:25:03 GMT"
								},
								{
									"key": "Connection",
									"value": "close"
								},
								{
									"key": "X-Powered-By",
									"value": "PHP/7.4.29"
								},
								{
									"key": "Cache-Control",
									"value": "no-cache, private"
								},
								{
									"key": "Content-Type",
									"value": "application/json"
								},
								{
									"key": "X-RateLimit-Limit",
									"value": "60"
								},
								{
									"key": "X-RateLimit-Remaining",
									"value": "57"
								},
								{
									"key": "Access-Control-Allow-Origin",
									"value": "*"
								}
							],
							"cookie": [],
							"body": "{\n    \"code\": 200,\n    \"info\": \"Berhasil menambahkan team\",\n    \"data\": {\n        \"workspace_id\": \"600ca8a0-5c09-11ed-9523-6512debb2fa4\",\n        \"user_id\": 1,\n        \"role\": \"user\",\n        \"updated_at\": \"2022-11-04T06:25:03.000000Z\",\n        \"created_at\": \"2022-11-04T06:25:03.000000Z\",\n        \"id\": 0\n    }\n}"
						}
					]
				},
				{
					"name": "Remove Team",
					"request": {
						"method": "DELETE",
						"header": [],
						"body": {
							"mode": "raw",
							"raw": "{\r\n    \"email\" : \"testing@gmail.com\"\r\n}",
							"options": {
								"raw": {
									"language": "json"
								}
							}
						},
						"url": {
							"raw": "{{BaseUrl}}/api/workspace/remove/600ca8a0-5c09-11ed-9523-6512debb2fa4",
							"host": [
								"{{BaseUrl}}"
							],
							"path": [
								"api",
								"workspace",
								"remove",
								"600ca8a0-5c09-11ed-9523-6512debb2fa4"
							]
						}
					},
					"response": [
						{
							"name": "Remove Team",
							"originalRequest": {
								"method": "DELETE",
								"header": [],
								"body": {
									"mode": "raw",
									"raw": "{\r\n    \"email\" : \"testing@gmail.com\"\r\n}",
									"options": {
										"raw": {
											"language": "json"
										}
									}
								},
								"url": {
									"raw": "{{BaseUrl}}/api/workspace/remove/600ca8a0-5c09-11ed-9523-6512debb2fa4",
									"host": [
										"{{BaseUrl}}"
									],
									"path": [
										"api",
										"workspace",
										"remove",
										"600ca8a0-5c09-11ed-9523-6512debb2fa4"
									]
								}
							},
							"status": "OK",
							"code": 200,
							"_postman_previewlanguage": "json",
							"header": [
								{
									"key": "Host",
									"value": "lvh.me:8000"
								},
								{
									"key": "Date",
									"value": "Fri, 04 Nov 2022 06:41:02 GMT"
								},
								{
									"key": "Date",
									"value": "Fri, 04 Nov 2022 06:41:02 GMT"
								},
								{
									"key": "Connection",
									"value": "close"
								},
								{
									"key": "X-Powered-By",
									"value": "PHP/7.4.29"
								},
								{
									"key": "Cache-Control",
									"value": "no-cache, private"
								},
								{
									"key": "Content-Type",
									"value": "application/json"
								},
								{
									"key": "X-RateLimit-Limit",
									"value": "60"
								},
								{
									"key": "X-RateLimit-Remaining",
									"value": "58"
								},
								{
									"key": "Access-Control-Allow-Origin",
									"value": "*"
								}
							],
							"cookie": [],
							"body": "{\n    \"code\": 200,\n    \"info\": \"Berhasil menghapus user dari workspace\"\n}"
						}
					]
				}
			]
		},
		{
			"name": "Task",
			"item": [
				{
					"name": "Create Task",
					"request": {
						"auth": {
							"type": "bearer",
							"bearer": [
								{
									"key": "token",
									"value": "{{token}}",
									"type": "string"
								}
							]
						},
						"method": "POST",
						"header": [],
						"body": {
							"mode": "raw",
							"raw": "{\r\n    \"workspace_id\": \"4eacee30-5c10-11ed-8d69-7fab50eed765\",\r\n    \"title\" : \"Testing task\",\r\n    \"description\" : \"testing description for task\",\r\n    \"status\" : \"1\"\r\n}",
							"options": {
								"raw": {
									"language": "json"
								}
							}
						},
						"url": {
							"raw": "{{BaseUrl}}/api/workspace/task",
							"host": [
								"{{BaseUrl}}"
							],
							"path": [
								"api",
								"workspace",
								"task"
							]
						}
					},
					"response": [
						{
							"name": "Create Task",
							"originalRequest": {
								"method": "POST",
								"header": [],
								"body": {
									"mode": "raw",
									"raw": "{\r\n    \"workspace_id\": \"600ca8a0-5c09-11ed-9523-6512debb2fa4\",\r\n    \"title\" : \"Testing task\",\r\n    \"description\" : \"testing description for task\",\r\n    \"status\" : \"active\"\r\n}",
									"options": {
										"raw": {
											"language": "json"
										}
									}
								},
								"url": {
									"raw": "{{BaseUrl}}/api/workspace/task",
									"host": [
										"{{BaseUrl}}"
									],
									"path": [
										"api",
										"workspace",
										"task"
									]
								}
							},
							"status": "OK",
							"code": 200,
							"_postman_previewlanguage": "json",
							"header": [
								{
									"key": "Host",
									"value": "lvh.me:8000"
								},
								{
									"key": "Date",
									"value": "Fri, 04 Nov 2022 07:06:14 GMT"
								},
								{
									"key": "Date",
									"value": "Fri, 04 Nov 2022 07:06:14 GMT"
								},
								{
									"key": "Connection",
									"value": "close"
								},
								{
									"key": "X-Powered-By",
									"value": "PHP/7.4.29"
								},
								{
									"key": "Cache-Control",
									"value": "no-cache, private"
								},
								{
									"key": "Content-Type",
									"value": "application/json"
								},
								{
									"key": "X-RateLimit-Limit",
									"value": "60"
								},
								{
									"key": "X-RateLimit-Remaining",
									"value": "59"
								},
								{
									"key": "Access-Control-Allow-Origin",
									"value": "*"
								}
							],
							"cookie": [],
							"body": "{\n    \"code\": \"00\",\n    \"info\": \"Membuat task berhasil\",\n    \"data\": {\n        \"user_id\": 2,\n        \"workspace_id\": \"600ca8a0-5c09-11ed-9523-6512debb2fa4\",\n        \"title\": \"Testing task\",\n        \"description\": \"testing description for task\",\n        \"status\": \"active\",\n        \"updated_at\": \"2022-11-04T07:06:14.000000Z\",\n        \"created_at\": \"2022-11-04T07:06:14.000000Z\",\n        \"id\": 1\n    }\n}"
						}
					]
				},
				{
					"name": "Update Task",
					"request": {
						"auth": {
							"type": "bearer",
							"bearer": [
								{
									"key": "token",
									"value": "{{token}}",
									"type": "string"
								}
							]
						},
						"method": "PUT",
						"header": [],
						"body": {
							"mode": "raw",
							"raw": "{\r\n    \"title\" : \"hanya testing\",\r\n    \"description\" : \"desc testing task\",\r\n    \"status\" : \"1\",\r\n    \"label\" : \"technology\",\r\n    \"milestone\" : \"v.1\"\r\n}",
							"options": {
								"raw": {
									"language": "json"
								}
							}
						},
						"url": {
							"raw": "{{BaseUrl}}/api/workspace/task/2",
							"host": [
								"{{BaseUrl}}"
							],
							"path": [
								"api",
								"workspace",
								"task",
								"2"
							]
						}
					},
					"response": [
						{
							"name": "Update Task",
							"originalRequest": {
								"method": "PUT",
								"header": [],
								"body": {
									"mode": "raw",
									"raw": "{\r\n    \"title\" : \"hanya testing\",\r\n    \"description\" : \"desc testing task\",\r\n    \"status\" : \"1\",\r\n    \"label\" : \"technology\",\r\n    \"milestone\" : \"v.1\"\r\n}",
									"options": {
										"raw": {
											"language": "json"
										}
									}
								},
								"url": {
									"raw": "{{BaseUrl}}/api/workspace/task/2",
									"host": [
										"{{BaseUrl}}"
									],
									"path": [
										"api",
										"workspace",
										"task",
										"2"
									]
								}
							},
							"status": "OK",
							"code": 200,
							"_postman_previewlanguage": "json",
							"header": [
								{
									"key": "Host",
									"value": "lvh.me:8000"
								},
								{
									"key": "Date",
									"value": "Fri, 04 Nov 2022 07:44:24 GMT"
								},
								{
									"key": "Date",
									"value": "Fri, 04 Nov 2022 07:44:24 GMT"
								},
								{
									"key": "Connection",
									"value": "close"
								},
								{
									"key": "X-Powered-By",
									"value": "PHP/7.4.29"
								},
								{
									"key": "Cache-Control",
									"value": "no-cache, private"
								},
								{
									"key": "Content-Type",
									"value": "application/json"
								},
								{
									"key": "X-RateLimit-Limit",
									"value": "60"
								},
								{
									"key": "X-RateLimit-Remaining",
									"value": "59"
								},
								{
									"key": "Access-Control-Allow-Origin",
									"value": "*"
								}
							],
							"cookie": [],
							"body": "{\n    \"code\": \"00\",\n    \"info\": \"Update task berhasil\",\n    \"data\": {\n        \"id\": 2,\n        \"user_id\": 2,\n        \"workspace_id\": \"fc9eca30-5c11-11ed-ac0c-91ec2009393e\",\n        \"title\": \"hanya testing\",\n        \"description\": \"desc testing task\",\n        \"status\": \"1\",\n        \"label\": \"technology\",\n        \"milestone\": \"v.1\",\n        \"created_at\": \"2022-11-04T07:31:19.000000Z\",\n        \"updated_at\": \"2022-11-04T07:44:24.000000Z\"\n    }\n}"
						}
					]
				},
				{
					"name": "Get Task",
					"request": {
						"method": "GET",
						"header": []
					},
					"response": [
						{
							"name": "Get Task",
							"originalRequest": {
								"method": "GET",
								"header": [],
								"url": {
									"raw": "{{BaseUrl}}/api/workspace/task/2",
									"host": [
										"{{BaseUrl}}"
									],
									"path": [
										"api",
										"workspace",
										"task",
										"2"
									]
								}
							},
							"status": "OK",
							"code": 200,
							"_postman_previewlanguage": "json",
							"header": [
								{
									"key": "Host",
									"value": "lvh.me:8000"
								},
								{
									"key": "Date",
									"value": "Fri, 04 Nov 2022 07:39:22 GMT"
								},
								{
									"key": "Date",
									"value": "Fri, 04 Nov 2022 07:39:22 GMT"
								},
								{
									"key": "Connection",
									"value": "close"
								},
								{
									"key": "X-Powered-By",
									"value": "PHP/7.4.29"
								},
								{
									"key": "Cache-Control",
									"value": "no-cache, private"
								},
								{
									"key": "Content-Type",
									"value": "application/json"
								},
								{
									"key": "X-RateLimit-Limit",
									"value": "60"
								},
								{
									"key": "X-RateLimit-Remaining",
									"value": "58"
								},
								{
									"key": "Access-Control-Allow-Origin",
									"value": "*"
								}
							],
							"cookie": [],
							"body": "{\n    \"code\": \"00\",\n    \"info\": \"Mengambil task berhasil\",\n    \"data\": {\n        \"id\": 2,\n        \"user_id\": 2,\n        \"workspace_id\": \"fc9eca30-5c11-11ed-ac0c-91ec2009393e\",\n        \"title\": \"Testing huhu\",\n        \"description\": \"testing description for task\",\n        \"status\": \"1\",\n        \"label\": null,\n        \"milestone\": null,\n        \"created_at\": \"2022-11-04T07:31:19.000000Z\",\n        \"updated_at\": \"2022-11-04T07:31:19.000000Z\"\n    }\n}"
						}
					]
				},
				{
					"name": "Delete Task",
					"request": {
						"method": "GET",
						"header": []
					},
					"response": []
				}
			]
		}
	]
}